\relax 
\bibstyle{Definitions/mdpi}
\providecommand\HyperFirstAtBeginDocument{\AtBeginDocument}
\HyperFirstAtBeginDocument{\ifx\hyper@anchor\@undefined
\global\let\oldcontentsline\contentsline
\gdef\contentsline#1#2#3#4{\oldcontentsline{#1}{#2}{#3}}
\global\let\oldnewlabel\newlabel
\gdef\newlabel#1#2{\newlabelxx{#1}#2}
\gdef\newlabelxx#1#2#3#4#5#6{\oldnewlabel{#1}{{#2}{#3}}}
\AtEndDocument{\ifx\hyper@anchor\@undefined
\let\contentsline\oldcontentsline
\let\newlabel\oldnewlabel
\fi}
\fi}
\global\let\hyper@last\relax 
\gdef\HyperFirstAtBeginDocument#1{#1}
\providecommand\HyField@AuxAddToFields[1]{}
\providecommand\HyField@AuxAddToCoFields[2]{}
\providecommand*\new@tpo@label[2]{}
\citation{bendsoeTopologyOptimizationTheory2013}
\citation{moleskyInverseDesignNanophotonics2018}
\citation{andkjaerTopologyOptimizedLowcontrast2011,vialTopologyOptimizedAlldielectric2015}
\citation{vialOptimizedMicrowaveIllusion2017}
\citation{jensenSystematicDesignPhotonic2004,jensenTopologyOptimizationPhotonic2005}
\citation{diazTopologyOptimizationMethod2009,nishiIsogeometricTopologyOptimization2020}
\citation{linTopologyOptimizationFreeform2019,fanFreeformMetasurfaceDesign2020,pestourieInverseDesignLargearea2018}
\citation{christiansenInverseDesignPhotonics2021}
\citation{jensenTopologyOptimizationNanophotonics2010}
\newmarginnote{note.1.1}{{1}{10945661sp}}
\@writefile{toc}{\contentsline {section}{\numberline {1}Introduction}{1}{section.1}\protected@file@percent }
\citation{demesyFiniteElementMethod2007}
\citation{berengerPerfectlyMatchedLayer1994,vialAdaptivePerfectlyMatched2012}
\@writefile{toc}{\contentsline {section}{\numberline {2}Materials and Methods}{2}{section.2}\protected@file@percent }
\newlabel{eq:maxwell1}{{1}{2}{Materials and Methods}{equation.2.1}{}}
\newlabel{eq:maxwell2}{{2}{2}{Materials and Methods}{equation.2.2}{}}
\@writefile{toc}{\contentsline {subsection}{\numberline {2.1}Finite Element Method}{2}{subsection.2.1}\protected@file@percent }
\newlabel{sec:fem}{{2.1}{2}{Finite Element Method}{subsection.2.1}{}}
\newlabel{eq:zaniso}{{3}{2}{Finite Element Method}{equation.2.3}{}}
\newlabel{eq:propa}{{4}{2}{Finite Element Method}{equation.2.4}{}}
\newlabel{eq:rad}{{5}{2}{Finite Element Method}{equation.2.5}{}}
\citation{gyptis042}
\citation{geuzaineGmsh3DFinite2009}
\citation{alnaesFEniCSProjectVersion2015}
\citation{whittakerScatteringmatrixTreatmentPatterned1999,liuS4FreeElectromagnetic2012}
\citation{popovMaxwellEquationsFourier2001}
\citation{moharamRigorousCoupledwaveAnalysis1981}
\newlabel{eq:residual}{{6}{3}{Finite Element Method}{equation.2.6}{}}
\newlabel{eq:weak}{{7}{3}{Finite Element Method}{equation.2.7}{}}
\@writefile{toc}{\contentsline {subsection}{\numberline {2.2}Fourier Modal Method}{3}{subsection.2.2}\protected@file@percent }
\newlabel{sec:fmm}{{2.2}{3}{Fourier Modal Method}{subsection.2.2}{}}
\newlabel{eq:Hexpansion}{{8}{3}{Fourier Modal Method}{equation.2.8}{}}
\newlabel{eq:DE}{{9}{3}{Fourier Modal Method}{equation.2.9}{}}
\citation{liNewFormulationFourier1997}
\citation{schusterNormalVectorMethod2007,gotzNormalVectorMethod2008}
\citation{liFourierModalMethod2003}
\newlabel{eq:tanfield}{{10}{4}{Fourier Modal Method}{equation.2.10}{}}
\newlabel{eq:tanfield1}{{11}{4}{Fourier Modal Method}{equation.2.11}{}}
\newlabel{eq:fmm0}{{13}{4}{Fourier Modal Method}{equation.2.13}{}}
\newlabel{eq:fmm1}{{14}{4}{Fourier Modal Method}{equation.2.14}{}}
\citation{whittakerScatteringmatrixTreatmentPatterned1999,liFormulationComparisonTwo1996}
\citation{liuS4FreeElectromagnetic2012}
\citation{husseinReducedBlochMode2009}
\citation{griewankEvaluatingDerivatives2008,corlissAutomaticDifferentiationAlgorithms2013}
\citation{baydinAutomaticDifferentiationMachine2017}
\@writefile{toc}{\contentsline {subsection}{\numberline {2.3}Plane Wave Expansion Method}{5}{subsection.2.3}\protected@file@percent }
\newlabel{sec:pwem}{{2.3}{5}{Plane Wave Expansion Method}{subsection.2.3}{}}
\newlabel{eq:pwem1}{{16}{5}{Plane Wave Expansion Method}{equation.2.16}{}}
\newlabel{eq:pwem2}{{17}{5}{Plane Wave Expansion Method}{equation.2.17}{}}
\@writefile{toc}{\contentsline {subsection}{\numberline {2.4}Automatic Differentiation}{5}{subsection.2.4}\protected@file@percent }
\newlabel{sec:autodiff}{{2.4}{5}{Automatic Differentiation}{subsection.2.4}{}}
\citation{mituschDolfinadjoint2018Automated2019}
\citation{harris2020array}
\citation{2020SciPy-NMeth}
\citation{jax2018github}
\citation{maclaurin2015autograd}
\citation{NEURIPS2019_9015,paszke2017automatic}
\newlabel{eq:genimpeq}{{18}{6}{Automatic Differentiation}{equation.2.18}{}}
\newlabel{eq:gradG}{{20}{6}{Automatic Differentiation}{equation.2.20}{}}
\citation{lazarovFiltersTopologyOptimization2011}
\citation{wangProjectionMethodsConvergence2010}
\citation{bendsoeMaterialInterpolationSchemes1999}
\citation{svanbergClassGloballyConvergent}
\citation{johnsonNLoptNonlinearoptimizationPackage}
\citation{aslanPlasmonLightScattering2005,guoPhotonicNanowiresSubwavelength2014,leeReviewSubwavelengthConfinement2010,powellSuperscatteringDirectiveAntennas2022}
\citation{weeShrinkingOpticalDevices2009,yangSuperscattererEnhancementScattering2008}
\citation{ruanSuperscatteringLightSubwavelength2010,ruanDesignSubwavelengthSuperscattering2011,mirzaeiSuperscatteringLightOptimized2014}
\citation{frezzaIntroductionElectromagneticScattering2018}
\@writefile{toc}{\contentsline {subsection}{\numberline {2.5}Topology Optimization}{7}{subsection.2.5}\protected@file@percent }
\newlabel{sec:topopt}{{2.5}{7}{Topology Optimization}{subsection.2.5}{}}
\newlabel{eq:pde_filt}{{26}{7}{Topology Optimization}{equation.2.26}{}}
\newlabel{eq:gaussian_filt}{{27}{7}{Topology Optimization}{equation.2.27}{}}
\newlabel{eq:proj}{{28}{7}{Topology Optimization}{equation.2.28}{}}
\newlabel{eq:simp}{{29}{7}{Topology Optimization}{equation.2.29}{}}
\@writefile{toc}{\contentsline {section}{\numberline {3}Results}{7}{section.3}\protected@file@percent }
\@writefile{toc}{\contentsline {subsection}{\numberline {3.1}Superscatterer}{7}{subsection.3.1}\protected@file@percent }
\newlabel{sec:res_gyptis}{{3.1}{7}{Superscatterer}{subsection.3.1}{}}
\citation{powellSuperscatteringDirectiveAntennas2022}
\citation{chingQuasinormalmodeExpansionWaves1998}
\citation{zollaPhotonicsHighlyDispersive2018,lalanneQuasinormalModeSolvers2019}
\citation{vialQuasimodalExpansionElectromagnetic2014}
\newlabel{eq:scs}{{30}{8}{Superscatterer}{equation.3.30}{}}
\@writefile{lof}{\contentsline {figure}{\numberline {1}{\ignorespaces \texthl  {Optimized} superscattering nanorods. (\textbf  {a}): normalized scattering width as a function of the wavelength of the incident light (blue: TE polarization, red: TM polarization). The insets at the top show the optimized dielectric distribution (white for Si{$\mathrm  O_{2}$} and black for Si), and the bottom insets are the radiation patterns for the normalized scattering width, in dB. The field maps on the right panels show the square norm of the fields at the target wavelength $\lambda _0=600$ nm. (\textbf  {b}): the square norm of the magnetic field $|H_z|^2$ for TE polarization. (\textbf  {c}): square norm of the electric field $|E_z|^2$ for TM polarization. \relax }}{8}{figure.caption.1}\protected@file@percent }
\providecommand*\caption@xref[2]{\@setref\relax\@undefined{#1}}
\newlabel{fig1}{{1}{8}{\hl {Optimized} superscattering nanorods. (\textbf {a}): normalized scattering width as a function of the wavelength of the incident light (blue: TE polarization, red: TM polarization). The insets at the top show the optimized dielectric distribution (white for Si{$\mathrm O_{2}$} and black for Si), and the bottom insets are the radiation patterns for the normalized scattering width, in dB. The field maps on the right panels show the square norm of the fields at the target wavelength $\lambda _0=600$ nm. (\textbf {b}): the square norm of the magnetic field $|H_z|^2$ for TE polarization. (\textbf {c}): square norm of the electric field $|E_z|^2$ for TM polarization. \relax }{figure.caption.1}{}}
\newlabel{eq:qnm}{{32}{8}{Superscatterer}{equation.3.32}{}}
\citation{vialQuasimodalExpansionElectromagnetic2014}
\newlabel{eq:qnme}{{33}{9}{Superscatterer}{equation.3.33}{}}
\newlabel{eq:qnmcoupl}{{34}{9}{Superscatterer}{equation.3.34}{}}
\citation{yuLightPropagationPhase2011,kildishevPlanarPhotonicsMetasurfaces2013}
\citation{sellLargeAngleMultifunctionalMetagratings2017,pestourieInverseDesignLargearea2018,linTopologyOptimizedMultilayeredMetaoptics2018,fanFreeformMetasurfaceDesign2020,roques-carmes3DPrintedInverseDesignedMetaoptics2022}
\citation{yangTopologyoptimizedMetasurfacesImpact2017}
\citation{sellLargeAngleMultifunctionalMetagratings2017}
\@writefile{lof}{\contentsline {figure}{\numberline {2}{\ignorespaces \texthl  {Modal} analysis of optimized supperscatterers for TE (left panel) and TM (right panel) polarization. The curves are the coupling coefficients as a function of incident wavelength for the four dominant eigenmodes (those with the highest $|C_n|$ at $\lambda =$ 600 nm). The insets show the real part of the eigenfield $v_n$ for the corresponding QNMs, its resonant wavelength $\lambda _n=2\pi /{\rm  Re}\,(k_n)$, and quality factor $Q_n={\rm  Re}\, (k_n)/2\,{\rm  Im}\, (k_n)$.\relax }}{10}{figure.caption.2}\protected@file@percent }
\newlabel{fig2}{{2}{10}{\hl {Modal} analysis of optimized supperscatterers for TE (left panel) and TM (right panel) polarization. The curves are the coupling coefficients as a function of incident wavelength for the four dominant eigenmodes (those with the highest $|C_n|$ at $\lambda =$ 600 nm). The insets show the real part of the eigenfield $v_n$ for the corresponding QNMs, its resonant wavelength $\lambda _n=2\pi /{\rm Re}\,(k_n)$, and quality factor $Q_n={\rm Re}\, (k_n)/2\,{\rm Im}\, (k_n)$.\relax }{figure.caption.2}{}}
\@writefile{toc}{\contentsline {subsection}{\numberline {3.2}Deflective Metasurface}{10}{subsection.3.2}\protected@file@percent }
\newlabel{sec:res_nannos}{{3.2}{10}{Deflective Metasurface}{subsection.3.2}{}}
\citation{sigmundGeometricPropertiesOptimal2008,menRobustTopologyOptimization2014}
\citation{minkovInverseDesignPhotonic2020,vercruysseDispersionEngineeringPhotonic2020}
\citation{linEnhancedSpontaneousEmission2016}
\@writefile{lof}{\contentsline {figure}{\numberline {3}{\ignorespaces Optimized metasurface blazed in the $(1,0)$ transmitted order. (\textbf  {a}): optimization history showing the figure of merit $\Phi $ (black squares) and the transmission coefficient for TE (blue line) and TM (red line) polarization. The final metagrating has 90.9\% and 85.5\% transmission efficiency for TE and TM polarized waves, respectively. (\textbf  {b}): optimized density function (0 corresponds to air and \mbox  {1 to silicon}).\relax }}{11}{figure.caption.3}\protected@file@percent }
\newlabel{fig3}{{3}{11}{Optimized metasurface blazed in the $(1,0)$ transmitted order. (\textbf {a}): optimization history showing the figure of merit $\Phi $ (black squares) and the transmission coefficient for TE (blue line) and TM (red line) polarization. The final metagrating has 90.9\% and 85.5\% transmission efficiency for TE and TM polarized waves, respectively. (\textbf {b}): optimized density function (0 corresponds to air and \mbox {1 to silicon}).\relax }{figure.caption.3}{}}
\@writefile{lof}{\contentsline {figure}{\numberline {4}{\ignorespaces Transmission spectra in the $(1,0)$ order for the optimized metasurface as a function of wavelength for TE (blue curve) and TM polarization (red curve). The insets show the norm of the Poynting vector (colourmap) and its transverse components (arrows) at the target wavelength directly above the metasurface ($z=350$ nm).\relax }}{11}{figure.caption.4}\protected@file@percent }
\newlabel{fig4}{{4}{11}{Transmission spectra in the $(1,0)$ order for the optimized metasurface as a function of wavelength for TE (blue curve) and TM polarization (red curve). The insets show the norm of the Poynting vector (colourmap) and its transverse components (arrows) at the target wavelength directly above the metasurface ($z=350$ nm).\relax }{figure.caption.4}{}}
\citation{sigmundGeometricPropertiesOptimal2008}
\citation{minkovInverseDesignPhotonic2020}
\citation{gyptis042}
\citation{nannos201}
\citation{protis003}
\@writefile{toc}{\contentsline {subsection}{\numberline {3.3}Bandgap and Dispersion Engineering in Photonic Crystals}{12}{subsection.3.3}\protected@file@percent }
\newlabel{sec:res_protis}{{3.3}{12}{Bandgap and Dispersion Engineering in Photonic Crystals}{subsection.3.3}{}}
\@writefile{lof}{\contentsline {figure}{\numberline {5}{\ignorespaces Inverse designed two-dimensional photonic crystals. (\textbf  {a}): maximal band gap between bands 5 and 6 for TE polarization. The band diagram is computed on the edges of the first Brillouin zone, and the optimized metamaterial exhibits a relative bandgap width of around 26\% centred at $\omega _0 = 0.766\times 2\pi c /a$. (\textbf  {b}): dispersion engineering to obtain a prescribed target (grey dashed lines) for the 6\textsuperscript  {th} TM mode (black line). The insets show the optimized unit cell with air \texthl  {(light shades)} and dielectric (\texthl  {dark shades).} \relax }}{12}{figure.caption.5}\protected@file@percent }
\newlabel{fig5}{{5}{12}{Inverse designed two-dimensional photonic crystals. (\textbf {a}): maximal band gap between bands 5 and 6 for TE polarization. The band diagram is computed on the edges of the first Brillouin zone, and the optimized metamaterial exhibits a relative bandgap width of around 26\% centred at $\omega _0 = 0.766\times 2\pi c /a$. (\textbf {b}): dispersion engineering to obtain a prescribed target (grey dashed lines) for the 6\textsuperscript {th} TM mode (black line). The insets show the optimized unit cell with air \hl {(light shades)} and dielectric (\hl {dark shades).} \relax }{figure.caption.5}{}}
\citation{ruppinScatteringElectromagneticRadiation2006}
\@writefile{toc}{\contentsline {section}{\numberline {4}Discussion}{13}{section.4}\protected@file@percent }
\@writefile{toc}{\contentsline {section}{\numberline {A}Appendix\nobreakspace  {}A}{13}{appendix.A.}\protected@file@percent }
\newlabel{appendix}{{A}{13}{\appendixname ~\thesection }{appendix.A.}{}}
\citation{jandieriScatteringLightGratings2015}
\citation{ruppinScatteringElectromagneticRadiation2006}
\citation{jandieriScatteringLightGratings2015}
\citation{liNewFormulationFourier1997}
\citation{liNewFormulationFourier1997}
\citation{liNewFormulationFourier1997}
\citation{liuS4FreeElectromagnetic2012,liNewFormulationFourier1997}
\@writefile{toc}{\contentsline {subsection}{\numberline {A.1}Appendix\nobreakspace  {}A.1}{14}{subsection.A.1}\protected@file@percent }
\@writefile{lof}{\contentsline {figure}{\numberline {A1}{\ignorespaces (\textbf  {a}): Scattering cross-section (SCS) of a perfectly conducting cylinder for a TE (red) and TM (green) polarized plane wave as a function of $kR$ ($k$ is the wavenumber and $R$ the radius of the cylinder). Solid lines are results from \cite  {ruppinScatteringElectromagneticRadiation2006} and markers are from our FEM implementation. (\textbf  {b}):\nobreakspace  {}Scattering cross-section (SCS) and absorption cross-section (ACS) of a single silver-coated dielectric nanocylinder ($\varepsilon =2$). The inner radius is $R_1= 60$ nm, outer radius $R_2=30$ nm. Wider lines are results from \cite  {jandieriScatteringLightGratings2015} and thin solid lines are from our FEM implementation.\relax }}{14}{figure.caption.6}\protected@file@percent }
\newlabel{figA1}{{A1}{14}{(\textbf {a}): Scattering cross-section (SCS) of a perfectly conducting cylinder for a TE (red) and TM (green) polarized plane wave as a function of $kR$ ($k$ is the wavenumber and $R$ the radius of the cylinder). Solid lines are results from \cite {ruppinScatteringElectromagneticRadiation2006} and markers are from our FEM implementation. (\textbf {b}):~Scattering cross-section (SCS) and absorption cross-section (ACS) of a single silver-coated dielectric nanocylinder ($\varepsilon =2$). The inner radius is $R_1= 60$ nm, outer radius $R_2=30$ nm. Wider lines are results from \cite {jandieriScatteringLightGratings2015} and thin solid lines are from our FEM implementation.\relax }{figure.caption.6}{}}
\@writefile{toc}{\contentsline {subsection}{\numberline {A.2}Appendix\nobreakspace  {}A.2}{14}{subsection.A.2}\protected@file@percent }
\@writefile{lot}{\contentsline {table}{\numberline {A1}{\ignorespaces Diffraction efficiencies (\%) of the transmitted orders of the checkerboard grating studied in\nobreakspace  {}\cite  {liNewFormulationFourier1997}.\relax }}{14}{table.caption.7}\protected@file@percent }
\newlabel{tab1}{{A1}{14}{Diffraction efficiencies (\%) of the transmitted orders of the checkerboard grating studied in~\cite {liNewFormulationFourier1997}.\relax }{table.caption.7}{}}
\citation{joannopoulosPhotonicCrystalsMolding2008}
\bibcite{bendsoeTopologyOptimizationTheory2013}{{1}{2013}{{Bendsoe and Sigmund}}{{}}}
\@writefile{lof}{\contentsline {figure}{\numberline {A2}{\ignorespaces Convergence of the (0, $-$1) transmitted order as a function of truncation number. Blue triangles: original formulation; green circles: tangent formulation.\relax }}{15}{figure.caption.8}\protected@file@percent }
\newlabel{figA2}{{A2}{15}{Convergence of the (0, $-$1) transmitted order as a function of truncation number. Blue triangles: original formulation; green circles: tangent formulation.\relax }{figure.caption.8}{}}
\@writefile{toc}{\contentsline {subsection}{\numberline {A.3}Appendix\nobreakspace  {}A.3}{15}{subsection.A.3}\protected@file@percent }
\@writefile{lof}{\contentsline {figure}{\numberline {A3}{\ignorespaces The photonic band structure for a square array of dielectric columns. The insets show the Brillouin zone, with the irreducible zone shaded. Solid lines are results from the full model and dashed lines are results obtained with the reduced Bloch mode expansion. Here we retained 385 plane waves in the expansion and used the first 8 modes calculated at the three symmetry points $\Gamma $, $X$, and $M$ for the RBME. The path in reciprocal space is discretized with 144 points.\relax }}{15}{figure.caption.9}\protected@file@percent }
\newlabel{figA3}{{A3}{15}{The photonic band structure for a square array of dielectric columns. The insets show the Brillouin zone, with the irreducible zone shaded. Solid lines are results from the full model and dashed lines are results obtained with the reduced Bloch mode expansion. Here we retained 385 plane waves in the expansion and used the first 8 modes calculated at the three symmetry points $\Gamma $, $X$, and $M$ for the RBME. The path in reciprocal space is discretized with 144 points.\relax }{figure.caption.9}{}}
\bibcite{moleskyInverseDesignNanophotonics2018}{{2}{2018}{{Molesky \em  {et~al.}}}{{Molesky, Lin, Piggott, Jin, Vuckovi{\'c}, and Rodriguez}}}
\bibcite{andkjaerTopologyOptimizedLowcontrast2011}{{3}{2011}{{Andkj{\ae }r and Sigmund}}{{}}}
\bibcite{vialTopologyOptimizedAlldielectric2015}{{4}{2015}{{Vial and Hao}}{{}}}
\bibcite{vialOptimizedMicrowaveIllusion2017}{{5}{2017}{{Vial \em  {et~al.}}}{{Vial, Torrico, and Hao}}}
\bibcite{jensenSystematicDesignPhotonic2004}{{6}{2004}{{Jensen and Sigmund}}{{}}}
\bibcite{jensenTopologyOptimizationPhotonic2005}{{7}{2005}{{Jensen and Sigmund}}{{}}}
\bibcite{diazTopologyOptimizationMethod2009}{{8}{2009}{{Diaz and Sigmund}}{{}}}
\bibcite{nishiIsogeometricTopologyOptimization2020}{{9}{2020}{{Nishi \em  {et~al.}}}{{Nishi, Yamada, Izui, Nishiwaki, and Terada}}}
\bibcite{linTopologyOptimizationFreeform2019}{{10}{2019}{{Lin \em  {et~al.}}}{{Lin, Liu, Pestourie, and Johnson}}}
\bibcite{fanFreeformMetasurfaceDesign2020}{{11}{2020}{{Fan}}{{}}}
\bibcite{pestourieInverseDesignLargearea2018}{{12}{2018}{{Pestourie \em  {et~al.}}}{{Pestourie, {P{\'e}rez-Arancibia}, Lin, Shin, Capasso, and Johnson}}}
\bibcite{christiansenInverseDesignPhotonics2021}{{13}{2021}{{Christiansen \em  {et~al.}}}{{Christiansen, Christiansen, Sigmund, and Sigmund}}}
\bibcite{jensenTopologyOptimizationNanophotonics2010}{{14}{2010}{{Jensen and Sigmund}}{{}}}
\bibcite{demesyFiniteElementMethod2007}{{15}{2007}{{Dem{\'e}sy \em  {et~al.}}}{{Dem{\'e}sy, Zolla, Nicolet, Commandr{\'e}, and Fossati}}}
\bibcite{berengerPerfectlyMatchedLayer1994}{{16}{1994}{{Berenger}}{{}}}
\bibcite{vialAdaptivePerfectlyMatched2012}{{17}{2012}{{Vial \em  {et~al.}}}{{Vial, Zolla, Nicolet, Commandr{\'e}, and Tisserand}}}
\bibcite{gyptis042}{{18}{2022}{{Vial}}{{}}}
\bibcite{geuzaineGmsh3DFinite2009}{{19}{2009}{{Geuzaine and Remacle}}{{}}}
\bibcite{alnaesFEniCSProjectVersion2015}{{20}{2015}{{Aln{\ae }s \em  {et~al.}}}{{Aln{\ae }s, Blechta, Hake, Johansson, Kehlet, Logg, Richardson, Ring, Rognes, and Wells}}}
\bibcite{whittakerScatteringmatrixTreatmentPatterned1999}{{21}{1999}{{Whittaker and Culshaw}}{{}}}
\bibcite{liuS4FreeElectromagnetic2012}{{22}{2012}{{Liu and Fan}}{{}}}
\bibcite{popovMaxwellEquationsFourier2001}{{23}{2001}{{Popov and Nevi{\`e}re}}{{}}}
\bibcite{moharamRigorousCoupledwaveAnalysis1981}{{24}{1981}{{Moharam and Gaylord}}{{}}}
\bibcite{liNewFormulationFourier1997}{{25}{1997}{{Li}}{{}}}
\bibcite{schusterNormalVectorMethod2007}{{26}{2007}{{Schuster \em  {et~al.}}}{{Schuster, Ruoff, Kerwien, Rafler, and Osten}}}
\bibcite{gotzNormalVectorMethod2008}{{27}{2008}{{G{\"o}tz \em  {et~al.}}}{{G{\"o}tz, Schuster, Frenner, Rafler, and Osten}}}
\bibcite{liFourierModalMethod2003}{{28}{2003}{{Li}}{{}}}
\bibcite{liFormulationComparisonTwo1996}{{29}{1996}{{Li}}{{}}}
\bibcite{husseinReducedBlochMode2009}{{30}{2009}{{Hussein}}{{}}}
\@writefile{toc}{\contentsline {section}{References}{16}{figure.caption.9}\protected@file@percent }
\bibcite{griewankEvaluatingDerivatives2008}{{31}{2008}{{Griewank and Walther}}{{}}}
\bibcite{corlissAutomaticDifferentiationAlgorithms2013}{{32}{2013}{{Corliss \em  {et~al.}}}{{Corliss, Faure, Griewank, Hascoet, and Naumann}}}
\bibcite{baydinAutomaticDifferentiationMachine2017}{{33}{2017}{{Baydin \em  {et~al.}}}{{Baydin, Pearlmutter, Radul, and Siskind}}}
\bibcite{mituschDolfinadjoint2018Automated2019}{{34}{2019}{{Mitusch \em  {et~al.}}}{{Mitusch, Funke, and Dokken}}}
\bibcite{harris2020array}{{35}{2020}{{Harris \em  {et~al.}}}{{Harris, Millman, {van der Walt}, Gommers, Virtanen, Cournapeau, Wieser, Taylor, Berg, Smith, Kern, Picus, Hoyer, {van Kerkwijk}, Brett, Haldane, {del R{\'i}o}, Wiebe, Peterson, {G{\'e}rard-Marchant}, Sheppard, Reddy, Weckesser, Abbasi, Gohlke, and Oliphant}}}
\bibcite{2020SciPy-NMeth}{{36}{2020}{{Virtanen \em  {et~al.}}}{{Virtanen, Gommers, Oliphant, Haberland, Reddy, Cournapeau, Burovski, Peterson, Weckesser, Bright, {van der Walt}, Brett, Wilson, Millman, Mayorov, Nelson, Jones, Kern, Larson, Carey, Polat, Feng, Moore, VanderPlas, Laxalde, Perktold, Cimrman, Henriksen, Quintero, Harris, Archibald, Ribeiro, Pedregosa, {van Mulbregt}, and {SciPy 1.0 Contributors}}}}
\bibcite{jax2018github}{{37}{2018}{{Bradbury \em  {et~al.}}}{{Bradbury, Frostig, Hawkins, Johnson, Leary, Maclaurin, Necula, Paszke, VanderPlas, {Wanderman-Milne}, and Zhang}}}
\bibcite{maclaurin2015autograd}{{38}{2015}{{Maclaurin \em  {et~al.}}}{{Maclaurin, Duvenaud, and Adams}}}
\bibcite{NEURIPS2019_9015}{{39}{2019}{{Paszke \em  {et~al.}}}{{Paszke, Gross, Massa, Lerer, Bradbury, Chanan, Killeen, Lin, Gimelshein, Antiga, Desmaison, Kopf, Yang, DeVito, Raison, Tejani, Chilamkurthy, Steiner, Fang, Bai, and Chintala}}}
\bibcite{paszke2017automatic}{{40}{2017}{{Paszke \em  {et~al.}}}{{Paszke, Gross, Chintala, Chanan, Yang, DeVito, Lin, Desmaison, Antiga, and Lerer}}}
\bibcite{lazarovFiltersTopologyOptimization2011}{{41}{2011}{{Lazarov and Sigmund}}{{}}}
\bibcite{wangProjectionMethodsConvergence2010}{{42}{2010}{{Wang \em  {et~al.}}}{{Wang, Lazarov, and Sigmund}}}
\bibcite{bendsoeMaterialInterpolationSchemes1999}{{43}{1999}{{Bends{\o }e and Sigmund}}{{}}}
\bibcite{svanbergClassGloballyConvergent}{{44}{}{{Svanberg}}{{}}}
\bibcite{johnsonNLoptNonlinearoptimizationPackage}{{45}{}{{Johnson}}{{}}}
\bibcite{aslanPlasmonLightScattering2005}{{46}{2005}{{Aslan \em  {et~al.}}}{{Aslan, Lakowicz, and Geddes}}}
\bibcite{guoPhotonicNanowiresSubwavelength2014}{{47}{2014}{{Guo \em  {et~al.}}}{{Guo, Ying, and Tong}}}
\bibcite{leeReviewSubwavelengthConfinement2010}{{48}{2010}{{Lee \em  {et~al.}}}{{Lee, Lee, Kim, Oh, and Hesselink}}}
\bibcite{powellSuperscatteringDirectiveAntennas2022}{{49}{2022}{{Powell \em  {et~al.}}}{{Powell, Mrnka, Hibbins, and Sambles}}}
\bibcite{weeShrinkingOpticalDevices2009}{{50}{2009}{{Wee and Pendry}}{{}}}
\bibcite{yangSuperscattererEnhancementScattering2008}{{51}{2008}{{Yang \em  {et~al.}}}{{Yang, Chen, Luo, and Ma}}}
\bibcite{ruanSuperscatteringLightSubwavelength2010}{{52}{2010}{{Ruan and Fan}}{{}}}
\bibcite{ruanDesignSubwavelengthSuperscattering2011}{{53}{2011}{{Ruan and Fan}}{{}}}
\bibcite{mirzaeiSuperscatteringLightOptimized2014}{{54}{2014}{{Mirzaei \em  {et~al.}}}{{Mirzaei, Miroshnichenko, Shadrivov, and Kivshar}}}
\bibcite{frezzaIntroductionElectromagneticScattering2018}{{55}{2018}{{Frezza \em  {et~al.}}}{{Frezza, Mangini, and Tedeschi}}}
\bibcite{chingQuasinormalmodeExpansionWaves1998}{{56}{1998}{{Ching \em  {et~al.}}}{{Ching, Leung, {Maassen van den Brink}, Suen, Tong, and Young}}}
\bibcite{zollaPhotonicsHighlyDispersive2018}{{57}{2018}{{Zolla \em  {et~al.}}}{{Zolla, Nicolet, and Dem{\'e}sy}}}
\bibcite{lalanneQuasinormalModeSolvers2019}{{58}{2019}{{Lalanne \em  {et~al.}}}{{Lalanne, Yan, Gras, Sauvan, Hugonin, Besbes, Dem{\'e}sy, Truong, Gralak, Zolla, Nicolet, Binkowski, Zschiedrich, Burger, Zimmerling, Remis, Urbach, Liu, and Weiss}}}
\bibcite{vialQuasimodalExpansionElectromagnetic2014}{{59}{2014}{{Vial \em  {et~al.}}}{{Vial, Zolla, Nicolet, and Commandr{\'e}}}}
\bibcite{yuLightPropagationPhase2011}{{60}{2011}{{Yu \em  {et~al.}}}{{Yu, Genevet, Kats, Aieta, Tetienne, Capasso, and Gaburro}}}
\bibcite{kildishevPlanarPhotonicsMetasurfaces2013}{{61}{2013}{{Kildishev \em  {et~al.}}}{{Kildishev, Boltasseva, and Shalaev}}}
\bibcite{sellLargeAngleMultifunctionalMetagratings2017}{{62}{2017}{{Sell \em  {et~al.}}}{{Sell, Yang, Doshay, Yang, and Fan}}}
\bibcite{linTopologyOptimizedMultilayeredMetaoptics2018}{{63}{2018}{{Lin \em  {et~al.}}}{{Lin, Groever, Capasso, Rodriguez, and Lon{\v c}ar}}}
\bibcite{roques-carmes3DPrintedInverseDesignedMetaoptics2022}{{64}{2022}{{{Roques-Carmes} \em  {et~al.}}}{{{Roques-Carmes}, Lin, Christiansen, Salamin, Kooi, Joannopoulos, Johnson, and Solja{\v c}i{\'c}}}}
\bibcite{yangTopologyoptimizedMetasurfacesImpact2017}{{65}{2017}{{Yang and Fan}}{{}}}
\bibcite{sigmundGeometricPropertiesOptimal2008}{{66}{2008}{{Sigmund and Hougaard}}{{}}}
\bibcite{menRobustTopologyOptimization2014}{{67}{2014}{{Men \em  {et~al.}}}{{Men, Lee, Freund, Peraire, and Johnson}}}
\bibcite{minkovInverseDesignPhotonic2020}{{68}{2020}{{Minkov \em  {et~al.}}}{{Minkov, Williamson, Andreani, Gerace, Lou, Song, Hughes, and Fan}}}
\bibcite{vercruysseDispersionEngineeringPhotonic2020}{{69}{2020}{{Vercruysse \em  {et~al.}}}{{Vercruysse, Sapra, Su, and Vuckovic}}}
\bibcite{linEnhancedSpontaneousEmission2016}{{70}{2016}{{Lin \em  {et~al.}}}{{Lin, Pick, Lon{\v c}ar, and Rodriguez}}}
\bibcite{nannos201}{{71}{2022{}}{{Vial}}{{}}}
\bibcite{protis003}{{72}{2022{}}{{Vial}}{{}}}
\bibcite{ruppinScatteringElectromagneticRadiation2006}{{73}{2006}{{Ruppin}}{{}}}
\bibcite{jandieriScatteringLightGratings2015}{{74}{2015}{{Jandieri \em  {et~al.}}}{{Jandieri, Meng, Yasumoto, and Liu}}}
\bibcite{joannopoulosPhotonicCrystalsMolding2008}{{75}{2008}{{Joannopoulos \em  {et~al.}}}{{Joannopoulos, Johnson, Winn, and Meade}}}
\newlabel{LastPage}{{}{18}{}{page.18}{}}
\xdef\lastpage@lastpage{18}
\xdef\lastpage@lastpageHy{18}
\expandafter\ifx\csname c@page@totc\endcsname\relax\newcounter{page@totc}\fi\setcounter{page@totc}{19}
\gdef \@abspage@last{18}
