<?xml version="1.0" encoding="UTF-8" standalone="no"?>
<svg
   width="40mm"
   height="40mm"
   viewBox="0 0 40 40"
   version="1.1"
   id="svg4"
   sodipodi:docname="opt.svg"
   inkscape:version="1.1.2 (0a00cf5339, 2022-02-04, custom)"
   xmlns:inkscape="http://www.inkscape.org/namespaces/inkscape"
   xmlns:sodipodi="http://sodipodi.sourceforge.net/DTD/sodipodi-0.dtd"
   xmlns="http://www.w3.org/2000/svg"
   xmlns:svg="http://www.w3.org/2000/svg">
  <defs
     id="defs8" />
  <sodipodi:namedview
     id="namedview6"
     pagecolor="#ffffff"
     bordercolor="#666666"
     borderopacity="1.0"
     inkscape:pageshadow="2"
     inkscape:pageopacity="0.0"
     inkscape:pagecheckerboard="0"
     inkscape:document-units="mm"
     showgrid="false"
     inkscape:zoom="5.6290104"
     inkscape:cx="75.679377"
     inkscape:cy="75.4129"
     inkscape:window-width="1920"
     inkscape:window-height="1080"
     inkscape:window-x="0"
     inkscape:window-y="0"
     inkscape:window-maximized="1"
     inkscape:current-layer="svg4" />
  <path
     id="rect938"
     style="fill:#aade87;stroke:#ffffff;stroke-width:0"
     d="M 82.234375 8.0253906 L 46.662109 44.087891 L 46.662109 76.962891 L 80.017578 43.150391 L 111.32617 74.035156 L 75.183594 110.67578 L 46.662109 82.542969 L 46.662109 120.19727 L 72.388672 145.57422 L 146.01172 70.9375 L 82.234375 8.0253906 z M 29.292969 61.695312 L 8.6113281 82.662109 L 29.292969 103.0625 L 29.292969 61.695312 z "
     transform="scale(0.26458333)"
     inkscape:export-filename="/home/bench/dev/optim_photonics/logo.png"
     inkscape:export-xdpi="600"
     inkscape:export-ydpi="600" />
</svg>
